…
``` r
stable_enet <- stabilise(data = stabiliser_example,
                         outcome = "y")
```

Access the stability (percentage of bootstrap resamples where a given
variable was selected by a given model) results for elastic net as
follows:

``` r
stable_enet$enet$stability
#> # A tibble: 100 x 7
#>    variable mean_coefficient ci_lower ci_upper bootstrap_p stability stable
#>    <chr>               <dbl>    <dbl>    <dbl>       <dbl>     <dbl> <chr> 
#>  1 causal1              2.58   0.207    5.45             0      90   *     
#>  2 causal3              2.59   0.222    6.49             0      78.5 *     
#>  3 causal2              2.12   0.0803   5.01             0      78   *     
#>  4 junk14               2.58   0.0695   7.31             0      71   <NA>  
#>  5 junk45               2.54   0.0526   5.76             0      63.5 <NA>  
#>  6 junk13               2.55   0.136    6.07             0      60.5 <NA>  
#>  7 junk88               1.88   0.0300   4.87             0      58   <NA>  
#>  8 junk86               1.59   0.110    4.98             0      57   <NA>  
#>  9 junk90               1.98   0.161    5.20             0      56   <NA>  
#> 10 junk65              -1.25  -3.65    -0.0244           0      46.5 <NA>  
#> # ... with 90 more rows
```
…
The stability of variables is available for all model types as before.

The stability results from these three models stored within
`stable_combi` can be combined using `triangulate` as follows:

``` r
triangulated <- triangulate(stable_combi)
triangulated
#> $combi
#> $combi$stability
#> # A tibble: 100 x 4
#>    variable stability bootstrap_p stable
#>    <chr>        <dbl>       <dbl> <chr> 
#>  1 causal1       62.3     0.00292 *     
#>  2 causal2       46.5     0       *     
#>  3 causal3       45.3     0       *     
#>  4 junk13        38       0       <NA>  
#>  5 junk14        37.8     0       <NA>  
#>  6 junk88        34.5     0       <NA>  
#>  7 junk45        29.5     0       <NA>  
#>  8 junk90        28.8     0       <NA>  
#>  9 junk86        28       0.0204  <NA>  
#> 10 junk65        19.8     0       <NA>  
#> # ... with 90 more rows
…
